<svg width="32" height="33" viewBox="0 0 32 33" fill="none" xmlns="http://www.w3.org/2000/svg">
<path fill-rule="evenodd" clip-rule="evenodd" d="M2.89788 17.0173H29.1021C29.5954 17.0173 30.027 16.5857 30.027 16.0925V0.924856C30.027 0.431599 29.5954 0 29.1021 0H2.89788C2.34297 0 1.91137 0.431599 1.91137 0.924856V16.0925C1.91137 16.5857 2.34297 17.0173 2.89788 17.0173ZM3.82274 1.91137H28.1773V15.1676H3.82274V1.91137ZM31.7534 23.0597C30.1503 21.025 27.1908 20.7168 25.1561 22.3198C24.2312 23.0597 23.6146 23.4913 23.1214 23.8613C22.4432 22.0116 20.7168 20.8401 18.7437 20.8401C16.6474 20.8401 14.5511 20.6551 12.5164 20.1619C10.4817 19.5453 8.26204 19.7919 6.41233 20.7784H0.924855C0.431599 20.7784 0 21.21 0 21.7033V31.0751C0 31.6301 0.431599 32.0617 0.924855 32.0617H6.5973C7.09056 32.0617 7.52216 31.6301 7.52216 31.1368V30.2119C8.81695 29.7803 10.2351 29.7803 11.5915 30.0886C13.5029 30.5819 15.4143 30.8285 17.3873 30.8285C23.0597 30.8285 27.8073 28.4239 31.6917 24.2929C32.0617 23.9229 32.0617 23.4297 31.7534 23.0597ZM1.84971 30.2119V22.6898H5.67245V30.2119H1.84971ZM12.0848 28.2389C10.605 27.869 9.06358 27.869 7.58381 28.3006V22.3815C9.00193 21.7033 10.6667 21.58 12.1464 22.0116C14.3661 22.5048 16.5857 22.7514 18.8054 22.6898C19.9769 22.6898 21.025 23.4297 21.4566 24.5395H14.1195C13.6262 24.5395 13.1946 24.9711 13.1946 25.4644C13.1946 25.9576 13.6262 26.3892 14.1195 26.3892H21.395C22.9981 26.3276 23.7996 25.8343 26.3892 23.738C27.3757 22.9364 28.7322 22.9364 29.7187 23.6146C23.2447 29.9653 16.5857 29.2871 12.0848 28.2389ZM8.50867 5.61079C9.00193 5.61079 9.43353 5.17919 9.43353 4.68593C9.43353 4.19268 9.00193 3.76108 8.50867 3.76108H6.65896C6.1657 3.76108 5.7341 4.19268 5.7341 4.68593V12.3314C5.7341 12.8247 6.1657 13.2563 6.65896 13.2563H8.50867C9.00193 13.2563 9.43353 12.8247 9.43353 12.3314C9.43353 11.8382 9.00193 11.4066 8.50867 11.4066H7.58381V5.61079H8.50867ZM25.341 3.76108H23.4913C22.9981 3.76108 22.5665 4.19268 22.5665 4.68593C22.5665 5.17919 22.9981 5.61079 23.4913 5.61079H24.4162V11.3449H23.4913C22.9981 11.3449 22.5665 11.7765 22.5665 12.2697C22.5665 12.763 22.9981 13.1946 23.4913 13.1946H25.341C25.8343 13.1946 26.2659 12.763 26.2659 12.2697V4.68593C26.2659 4.19268 25.896 3.76108 25.341 3.76108ZM15.9692 3.76108C13.3179 3.69942 11.1599 5.79576 11.1599 8.44701C11.0983 11.0983 13.1946 13.2563 15.8459 13.2563C18.4971 13.3179 20.6551 11.2216 20.6551 8.57033V8.50867C20.6551 5.91908 18.6204 3.76108 15.9692 3.76108ZM15.9692 11.4066C14.3661 11.4682 13.0713 10.1734 13.0096 8.57033C12.948 6.96724 14.2428 5.67245 15.8459 5.61079C17.4489 5.54913 18.7437 6.84393 18.8054 8.44701V8.50867C18.8054 10.0501 17.5723 11.3449 15.9692 11.4066Z" fill="#27375D"/>
</svg>
