<svg width="32" height="32" viewBox="0 0 32 32" fill="none" xmlns="http://www.w3.org/2000/svg">
<path d="M31.7999 11.5L28.4999 7.20002L28.5999 6.30002C28.5999 6.00002 28.4999 5.70002 28.2999 5.50002L26.2999 3.50002L28.2999 1.50002C28.6999 1.10002 28.6999 0.600024 28.2999 0.200024C27.8999 -0.199976 27.2999 -0.199976 26.9999 0.200024L24.9999 2.20002L22.9999 0.200024C22.8999 0.100024 22.5999 2.44156e-05 22.2999 2.44156e-05L12.9999 1.30002C12.7999 1.30002 12.5999 1.40002 12.4999 1.60002L0.999902 12.9C-0.300098 14.2 -0.300098 16.3 0.999902 17.7L10.6999 27.3C10.8999 27.5 11.0999 27.7 11.2999 27.8V28.2C11.2999 30.1 12.8999 31.6 14.6999 31.6H28.4999C30.3999 31.6 31.8999 30.1 31.8999 28.2V12.1C31.9999 11.9 31.8999 11.7 31.7999 11.5ZM12.0999 26.1L2.3999 16.5C1.7999 15.9 1.7999 14.9 2.3999 14.3L13.5999 3.10002L22.0999 1.90002L23.7999 3.50002L22.4999 4.80002L21.7999 4.10002C21.3999 3.70002 20.7999 3.70002 20.4999 4.10002C20.0999 4.50002 20.0999 5.00002 20.4999 5.40002L23.1999 8.00002C23.5999 8.40002 24.1999 8.40002 24.4999 8.00002C24.8999 7.60002 24.8999 7.10002 24.4999 6.70002L23.7999 6.00002L25.0999 4.70002L26.7999 6.30002L25.5999 14.7L14.2999 26.1C13.6999 26.7 12.6999 26.7 12.0999 26.1ZM30.0999 28.2C30.0999 29.1 29.3999 29.7 28.4999 29.7H14.7999C13.9999 29.7 13.2999 29.1 13.1999 28.3C14.0999 28.3 14.8999 27.9 15.4999 27.3L27.0999 16C27.1999 15.9 27.2999 15.7 27.3999 15.5L28.1999 9.80002L30.1999 12.4V28.2H30.0999Z" fill="#27375D"/>
<path d="M16.5999 7.00002C16.0999 6.80002 15.5999 7.10002 15.3999 7.60002L10.9999 20.7C10.7999 21.2 11.0999 21.7 11.5999 21.9C11.6999 21.9 11.7999 21.9 11.8999 21.9C12.2999 21.9 12.6999 21.6 12.7999 21.3L17.1999 8.20002C17.2999 7.70002 16.9999 7.20002 16.5999 7.00002Z" fill="#27375D"/>
<path d="M19.3 17.3C20.8 17.3 22.1 16 22 14.5C22 13 20.7 11.7 19.2 11.8C17.7 11.8 16.5 13.1 16.5 14.6C16.5 16 17.8 17.3 19.3 17.3ZM19.3 13.6C19.8 13.6 20.2 14 20.2 14.5C20.2 15 19.8 15.4 19.3 15.4C18.8 15.4 18.4 15 18.4 14.5C18.4 14 18.8 13.5 19.3 13.6Z" fill="#27375D"/>
<path d="M8.7 11.7001C7.2 11.7001 6 13.0001 6 14.5001C6 16.0001 7.3 17.3001 8.8 17.2001C10.3 17.2001 11.5 15.9001 11.5 14.4001C11.5 12.9001 10.3 11.7001 8.7 11.7001ZM8.7 15.4001C8.2 15.4001 7.8 15.0001 7.8 14.5001C7.8 14.0001 8.2 13.6001 8.7 13.6001C9.2 13.6001 9.6 14.0001 9.6 14.5001C9.7 15.0001 9.3 15.4001 8.7 15.4001Z" fill="#27375D"/>
</svg>
