<svg width="32" height="32" viewBox="0 0 32 32" fill="none" xmlns="http://www.w3.org/2000/svg">
<path d="M3.6 24.8C1.6 24.8 0 26.4 0 28.4C0 30.4 1.6 32 3.6 32C5.6 32 7.2 30.4 7.2 28.4C7.2 26.5 5.6 24.9 3.6 24.8ZM5.4 28.4C5.4 29.4 4.6 30.2001 3.6 30.2001C2.6 30.2001 1.8 29.4 1.8 28.4C1.8 27.4 2.6 26.6 3.6 26.6C4.6 26.6 5.4 27.4 5.4 28.4Z" fill="#27375D"/>
<path d="M20.4 5.59998C17.1 5.59998 14.5 8.29998 14.5 11.5V20.4C14.5 23.7 17.2 26.3 20.4 26.3C23.7 26.3 26.3 23.6 26.3 20.4V11.5C26.4 8.29998 23.7 5.59998 20.4 5.59998ZM24.5 20.4C24.5 22.6 22.7 24.5 20.4 24.5C18.2 24.5 16.3 22.7 16.3 20.4V11.5C16.3 9.29998 18.1 7.39998 20.4 7.39998C22.6 7.39998 24.5 9.19998 24.5 11.5V20.4Z" fill="#27375D"/>
<path d="M20.3999 0C14.0999 0 8.8999 5.2 8.8999 11.6V20.5C8.8999 26.9 14.0999 32.1 20.4999 32.1C26.7999 32 31.9999 26.8 31.9999 20.4V11.5C31.9999 5.2 26.7999 0 20.3999 0ZM30.0999 20.4C30.0999 25.7 25.7999 30.1 20.3999 30.1C14.9999 30.1 10.6999 25.8 10.6999 20.4V11.5C10.6999 6.2 14.9999 1.8 20.3999 1.8C25.6999 1.8 30.0999 6.1 30.0999 11.5V20.4Z" fill="#27375D"/>
</svg>
